<?xml version="1.0" encoding="UTF-8"?>
<svg width="180px" height="180px" viewBox="0 0 180 180" version="1.1" xmlns="http://www.w3.org/2000/svg" xmlns:xlink="http://www.w3.org/1999/xlink">
    <!-- Generator: Sketch 52.2 (67145) - http://www.bohemiancoding.com/sketch -->
    <title>Atom/Logo</title>
    <desc>Created with Sketch.</desc>
    <g id="App-Icons" stroke="none" stroke-width="1" fill="none" fill-rule="evenodd">
        <g id="iOS-Icon-180x180-Copy-2" transform="translate(-22.000000, -22.000000)">
            <g id="Atom/Logo" transform="translate(22.000000, 22.000000)">
                <rect id="Rectangle" x="7" y="69" width="166" height="42"></rect>
                <rect id="Rectangle-2" stroke="#E1E1E1" stroke-width="2" fill="#FFFFFF" x="1" y="1" width="178" height="178" rx="30"></rect>
                <path d="M154.05325,69 C154.995786,69.2210131 155.952656,69.391918 156.876376,69.6719872 C160.691315,70.8244766 162.915949,73.3862601 163.552967,77.3170722 C163.66496,78.00785 163.742907,78.7048914 163.856693,79.3956692 C163.922097,79.7911663 163.854005,79.9960732 163.385425,80.0676564 C162.042402,80.2734581 160.709234,80.5410003 159.340228,80.7906466 C159.30887,79.7705861 159.186126,78.8274776 158.989017,77.8897378 C158.4183,75.1892618 156.865625,73.7414917 154.124926,73.3934185 C152.616153,73.2010386 151.102004,73.1115596 149.581583,73.1115596 C145.231765,73.1133492 140.881051,73.0748733 136.531232,73.131245 C134.855813,73.15272 133.166059,73.1974595 131.532749,73.719122 C129.241815,74.4501653 128.006305,75.9704134 127.761712,78.3595025 C127.61836,79.762533 127.569083,81.151247 127.751856,82.5614359 C128.138009,85.5518238 129.684412,87.1660248 132.726149,87.6152093 C134.092467,87.816537 135.467744,87.9069108 136.847501,87.9113848 C142.552886,87.9301753 148.260063,87.8791723 153.963656,87.9838627 C157.552816,88.0500772 160.613368,89.3466278 162.591617,92.5437121 C163.981229,94.7896348 164.131748,97.3048892 164.102182,99.8514613 C164.080679,101.688465 163.920305,103.515626 163.135456,105.196936 C161.582781,108.52466 158.803557,110.132597 155.269049,110.647102 C153.245107,110.942382 151.212205,110.812638 149.183783,110.820691 C144.155734,110.841271 139.127684,110.841271 134.099635,110.820691 C131.776446,110.812638 129.510599,110.483355 127.457986,109.287916 C124.968152,107.838356 123.541806,105.652384 123.045451,102.840954 C122.952273,102.316608 122.9021,101.785102 122.837592,101.256281 C122.693345,100.07158 122.695136,100.074264 123.819549,99.8496717 C124.814049,99.6519232 125.849763,99.6599763 126.786026,99.1687366 C127.094232,99.0067796 127.281485,99.2152657 127.264462,99.5982358 C127.22952,100.390125 127.407813,101.157855 127.560124,101.931848 C128.224916,105.318628 130.303511,106.373585 133.125741,106.564175 C139.46904,106.996359 145.825777,106.690341 152.176243,106.723448 C153.261234,106.728817 154.352496,106.541805 155.419568,106.264421 C157.546544,105.71323 158.896735,104.458735 159.350084,102.253077 C159.741612,100.349859 159.764011,98.4475359 159.410112,96.5577397 C158.964827,94.1847568 157.344956,92.9132603 155.09434,92.3754916 C153.972615,92.1079494 152.821324,92.0193652 151.66197,92.0211548 C145.899245,92.0274183 140.135623,92.0766318 134.37469,91.9889424 C131.360727,91.9442029 128.468613,91.368853 126.132882,89.162301 C124.358012,87.48457 123.485361,85.4006043 123.264958,83.0607286 C123.03022,80.5687387 122.946001,78.0373781 123.769376,75.6205505 C125.011157,71.9760712 127.715123,70.0272188 131.426131,69.3319671 C131.90815,69.2424881 132.421527,69.2702266 132.863229,69 L154.05325,69 Z" id="Combined-Shape" fill="#000000"></path>
                <path d="M116.910458,69.8467397 L109.53055,74.6123908 L7.00026878,72.2778839 L116.910458,69.8467397 Z M35.1846727,88.9667894 L107.651482,86.7548688 L100.792118,91.3639316 L35.1846727,88.9667894 Z M98.4337194,103.538533 L91.1613249,108.271076 L62.1138561,105.7424 L98.4337194,103.538533 Z" id="Combined-Shape" fill="#7FBBE1"></path>
            </g>
        </g>
    </g>
</svg>